samples,condition
TCGA-18-3408-01,high_risk
TCGA-18-3410-01,high_risk
TCGA-18-3411-01,high_risk
TCGA-18-3412-01,high_risk
TCGA-18-3414-01,high_risk
TCGA-18-3415-01,high_risk
TCGA-18-3416-01,high_risk
TCGA-18-3417-01,high_risk
TCGA-18-3419-01,high_risk
TCGA-18-3421-01,high_risk
TCGA-18-4083-01,high_risk
TCGA-18-4086-01,high_risk
TCGA-18-5592-01,high_risk
TCGA-18-5595-01,high_risk
TCGA-21-1070-01,high_risk
TCGA-21-1071-01,high_risk
TCGA-21-1072-01,high_risk
TCGA-21-1075-01,high_risk
TCGA-21-1076-01,high_risk
TCGA-21-1077-01,high_risk
TCGA-21-1078-01,high_risk
TCGA-21-1079-01,high_risk
TCGA-21-1080-01,high_risk
TCGA-21-1081-01,high_risk
TCGA-21-1082-01,high_risk
TCGA-21-5782-01,high_risk
TCGA-21-5783-01,high_risk
TCGA-21-5784-01,high_risk
TCGA-21-5786-01,high_risk
TCGA-21-5787-01,high_risk
TCGA-22-1000-01,high_risk
TCGA-22-1011-01,high_risk
TCGA-22-1012-01,high_risk
TCGA-22-1016-01,high_risk
TCGA-22-4591-01,high_risk
TCGA-22-4593-01,high_risk
TCGA-22-4594-01,high_risk
TCGA-22-4595-01,high_risk
TCGA-22-4599-01,high_risk
TCGA-22-4601-01,high_risk
TCGA-22-4604-01,high_risk
TCGA-22-4605-01,high_risk
TCGA-22-4607-01,high_risk
TCGA-22-5471-01,high_risk
TCGA-22-5472-01,high_risk
TCGA-22-5473-01,high_risk
TCGA-22-5474-01,high_risk
TCGA-22-5478-01,high_risk
TCGA-22-5479-01,high_risk
TCGA-22-5481-01,high_risk
TCGA-22-5482-01,high_risk
TCGA-22-5492-01,high_risk
TCGA-22-A5C4-01,high_risk
TCGA-33-4532-01,high_risk
TCGA-33-4533-01,high_risk
TCGA-33-4538-01,high_risk
TCGA-33-4547-01,high_risk
TCGA-33-4566-01,high_risk
TCGA-33-4586-01,high_risk
TCGA-33-4587-01,high_risk
TCGA-33-4589-01,high_risk
TCGA-33-6737-01,high_risk
TCGA-33-A4WN-01,high_risk
TCGA-33-AASB-01,high_risk
TCGA-33-AASI-01,high_risk
TCGA-33-AASJ-01,high_risk
TCGA-34-2596-01,high_risk
TCGA-34-2608-01,high_risk
TCGA-34-5236-01,high_risk
TCGA-34-5239-01,high_risk
TCGA-34-5240-01,high_risk
TCGA-34-5241-01,high_risk
TCGA-34-5928-01,high_risk
TCGA-34-5929-01,high_risk
TCGA-34-7107-01,high_risk
TCGA-34-8454-01,high_risk
TCGA-34-8455-01,high_risk
TCGA-34-8456-01,high_risk
TCGA-34-A5IX-01,high_risk
TCGA-37-3783-01,high_risk
TCGA-37-3789-01,high_risk
TCGA-37-3792-01,high_risk
TCGA-37-4132-01,high_risk
TCGA-37-4133-01,high_risk
TCGA-37-4135-01,high_risk
TCGA-37-5819-01,high_risk
TCGA-37-A5EL-01,high_risk
TCGA-37-A5EM-01,high_risk
TCGA-37-A5EN-01,high_risk
TCGA-39-5016-01,high_risk
TCGA-39-5019-01,high_risk
TCGA-39-5021-01,high_risk
TCGA-39-5022-01,high_risk
TCGA-39-5024-01,high_risk
TCGA-39-5027-01,high_risk
TCGA-39-5028-01,high_risk
TCGA-39-5030-01,high_risk
TCGA-39-5034-01,high_risk
TCGA-39-5036-01,high_risk
TCGA-39-5039-01,high_risk
TCGA-39-5040-01,high_risk
TCGA-43-2576-01,high_risk
TCGA-43-2581-01,high_risk
TCGA-43-3394-01,high_risk
TCGA-43-3920-01,high_risk
TCGA-43-5670-01,high_risk
TCGA-43-6143-01,high_risk
TCGA-43-6647-01,high_risk
TCGA-43-6770-01,high_risk
TCGA-43-6771-01,high_risk
TCGA-43-6773-01,high_risk
TCGA-43-8115-01,high_risk
TCGA-43-A474-01,high_risk
TCGA-43-A475-01,high_risk
TCGA-43-A56V-01,high_risk
TCGA-46-3768-01,high_risk
TCGA-46-3769-01,high_risk
TCGA-46-6025-01,high_risk
TCGA-46-6026-01,high_risk
TCGA-51-4079-01,high_risk
TCGA-51-4080-01,high_risk
TCGA-51-4081-01,high_risk
TCGA-52-7809-01,high_risk
TCGA-52-7810-01,high_risk
TCGA-52-7811-01,high_risk
TCGA-52-7812-01,high_risk
TCGA-56-1622-01,high_risk
TCGA-56-6545-01,high_risk
TCGA-56-6546-01,high_risk
TCGA-56-7221-01,high_risk
TCGA-56-7222-01,high_risk
TCGA-56-7223-01,high_risk
TCGA-56-7579-01,high_risk
TCGA-56-7580-01,high_risk
TCGA-56-7582-01,high_risk
TCGA-56-7730-01,high_risk
TCGA-56-7731-01,high_risk
TCGA-56-7822-01,high_risk
TCGA-56-8082-01,high_risk
TCGA-56-8083-01,high_risk
TCGA-56-8201-01,high_risk
TCGA-56-8305-01,high_risk
TCGA-56-8307-01,high_risk
TCGA-56-8308-01,high_risk
TCGA-56-8503-01,high_risk
TCGA-56-8504-01,high_risk
TCGA-56-8622-01,high_risk
TCGA-56-8623-01,high_risk
TCGA-56-8624-01,high_risk
TCGA-56-8625-01,high_risk
TCGA-56-8629-01,high_risk
TCGA-56-A49D-01,high_risk
TCGA-56-A4BW-01,high_risk
TCGA-56-A4BX-01,high_risk
TCGA-56-A4BY-01,high_risk
TCGA-56-A4ZK-01,high_risk
TCGA-56-A5DS-01,high_risk
TCGA-56-A62T-01,high_risk
TCGA-58-8386-01,high_risk
TCGA-58-8387-01,high_risk
TCGA-58-8388-01,high_risk
TCGA-58-8390-01,high_risk
TCGA-58-8391-01,high_risk
TCGA-58-8392-01,high_risk
TCGA-58-8393-01,high_risk
TCGA-58-A46J-01,high_risk
TCGA-58-A46K-01,high_risk
TCGA-58-A46L-01,high_risk
TCGA-58-A46M-01,high_risk
TCGA-58-A46N-01,high_risk
TCGA-60-2695-01,high_risk
TCGA-60-2696-01,high_risk
TCGA-60-2697-01,high_risk
TCGA-60-2698-01,high_risk
TCGA-60-2703-01,high_risk
TCGA-60-2704-01,high_risk
TCGA-60-2707-01,high_risk
TCGA-60-2708-01,high_risk
TCGA-60-2709-01,high_risk
TCGA-60-2711-01,high_risk
TCGA-60-2712-01,high_risk
TCGA-60-2713-01,high_risk
TCGA-60-2714-01,high_risk
TCGA-60-2716-01,high_risk
TCGA-60-2720-01,high_risk
TCGA-60-2721-01,high_risk
TCGA-60-2722-01,high_risk
TCGA-60-2723-01,high_risk
TCGA-60-2724-01,high_risk
TCGA-60-2725-01,high_risk
TCGA-60-2726-01,high_risk
TCGA-63-5128-01,high_risk
TCGA-63-5131-01,high_risk
TCGA-63-6202-01,high_risk
TCGA-63-A5M9-01,high_risk
TCGA-63-A5MB-01,high_risk
TCGA-63-A5MG-01,high_risk
TCGA-63-A5MI-01,high_risk
TCGA-63-A5MJ-01,high_risk
TCGA-63-A5ML-01,high_risk
TCGA-63-A5MM-01,high_risk
TCGA-63-A5MN-01,high_risk
TCGA-63-A5MP-01,high_risk
TCGA-63-A5MR-01,high_risk
TCGA-63-A5MS-01,high_risk
TCGA-63-A5MT-01,high_risk
TCGA-63-A5MU-01,high_risk
TCGA-63-A5MV-01,high_risk
TCGA-63-A5MW-01,high_risk
TCGA-66-2727-01,high_risk
TCGA-66-2734-01,high_risk
TCGA-66-2737-01,high_risk
TCGA-66-2742-01,high_risk
TCGA-66-2744-01,high_risk
TCGA-66-2753-01,high_risk
TCGA-66-2754-01,high_risk
TCGA-66-2755-01,high_risk
TCGA-66-2756-01,high_risk
TCGA-66-2758-01,high_risk
TCGA-66-2759-01,high_risk
TCGA-66-2763-01,high_risk
TCGA-66-2765-01,high_risk
TCGA-66-2766-01,high_risk
TCGA-66-2767-01,high_risk
TCGA-66-2768-01,high_risk
TCGA-66-2769-01,high_risk
TCGA-66-2770-01,high_risk
TCGA-66-2771-01,high_risk
TCGA-66-2773-01,high_risk
TCGA-66-2777-01,high_risk
TCGA-66-2778-01,high_risk
TCGA-66-2780-01,high_risk
TCGA-66-2781-01,high_risk
TCGA-66-2782-01,high_risk
TCGA-66-2783-01,high_risk
TCGA-66-2785-01,high_risk
TCGA-66-2788-01,high_risk
TCGA-66-2790-01,high_risk
TCGA-66-2791-01,high_risk
TCGA-66-2792-01,high_risk
TCGA-66-2793-01,high_risk
TCGA-66-2794-01,high_risk
TCGA-66-2795-01,high_risk
TCGA-66-2800-01,high_risk
TCGA-68-7756-01,high_risk
TCGA-68-8251-01,high_risk
TCGA-68-A59I-01,high_risk
TCGA-68-A59J-01,high_risk
TCGA-6A-AB49-01,high_risk
TCGA-70-6722-01,high_risk
TCGA-70-6723-01,high_risk
TCGA-77-6842-01,high_risk
TCGA-77-6844-01,high_risk
TCGA-77-6845-01,high_risk
TCGA-77-7138-01,high_risk
TCGA-77-7139-01,high_risk
TCGA-77-7140-01,high_risk
TCGA-77-7141-01,high_risk
TCGA-77-7142-01,high_risk
TCGA-77-7335-01,high_risk
TCGA-77-7337-01,high_risk
TCGA-77-7338-01,high_risk
TCGA-77-7463-01,high_risk
TCGA-77-7465-01,high_risk
TCGA-77-8007-01,high_risk
TCGA-77-8008-01,high_risk
TCGA-77-8009-01,high_risk
TCGA-77-8128-01,high_risk
TCGA-77-8130-01,high_risk
TCGA-77-8131-01,high_risk
TCGA-77-8136-01,high_risk
TCGA-77-8138-01,high_risk
TCGA-77-8139-01,high_risk
TCGA-77-8140-01,high_risk
TCGA-77-8143-01,high_risk
TCGA-77-8144-01,high_risk
TCGA-77-8145-01,high_risk
TCGA-77-8148-01,high_risk
TCGA-77-8150-01,high_risk
TCGA-77-8153-01,high_risk
TCGA-77-8156-01,high_risk
TCGA-77-A5FZ-01,high_risk
TCGA-77-A5G1-01,high_risk
TCGA-77-A5G3-01,high_risk
TCGA-77-A5G6-01,high_risk
TCGA-77-A5GA-01,high_risk
TCGA-77-A5GF-01,high_risk
TCGA-77-A5GH-01,high_risk
TCGA-79-5596-01,high_risk
TCGA-85-6175-01,high_risk
TCGA-85-6561-01,high_risk
TCGA-85-6798-01,high_risk
TCGA-85-7697-01,high_risk
TCGA-85-7699-01,high_risk
TCGA-85-7843-01,high_risk
TCGA-85-7844-01,high_risk
TCGA-85-7950-01,high_risk
TCGA-85-8049-01,high_risk
TCGA-85-8052-01,high_risk
TCGA-85-8070-01,high_risk
TCGA-85-8277-01,high_risk
TCGA-85-8351-01,high_risk
TCGA-85-8352-01,high_risk
TCGA-85-8353-01,high_risk
TCGA-85-8354-01,high_risk
TCGA-85-8481-01,high_risk
TCGA-85-8580-01,high_risk
TCGA-85-8584-01,high_risk
TCGA-85-8664-01,high_risk
TCGA-85-8666-01,high_risk
TCGA-85-A4CN-01,high_risk
TCGA-85-A4JB-01,high_risk
TCGA-85-A4JC-01,high_risk
TCGA-85-A4PA-01,high_risk
TCGA-85-A4QQ-01,high_risk
TCGA-85-A4QR-01,high_risk
TCGA-85-A50M-01,high_risk
TCGA-85-A50Z-01,high_risk
TCGA-85-A510-01,high_risk
TCGA-85-A511-01,high_risk
TCGA-85-A53L-01,high_risk
TCGA-90-6837-01,high_risk
TCGA-90-7767-01,high_risk
TCGA-90-7769-01,high_risk
TCGA-90-7964-01,high_risk
TCGA-90-A4ED-01,high_risk
TCGA-90-A4EE-01,high_risk
TCGA-90-A59Q-01,high_risk
TCGA-92-7340-01,high_risk
TCGA-92-7341-01,high_risk
TCGA-92-8063-01,high_risk
TCGA-92-8064-01,high_risk
TCGA-92-8065-01,high_risk
TCGA-94-7033-01,high_risk
TCGA-94-7557-01,high_risk
TCGA-94-8035-01,high_risk
TCGA-94-8490-01,high_risk
TCGA-94-8491-01,high_risk
TCGA-94-A5I4-01,high_risk
TCGA-94-A5I6-01,high_risk
TCGA-96-7544-01,high_risk
TCGA-96-A4JK-01,high_risk
TCGA-96-A4JL-01,high_risk
TCGA-98-7454-01,high_risk
TCGA-98-8020-01,high_risk
TCGA-98-8023-01,high_risk
TCGA-98-A538-01,high_risk
TCGA-98-A539-01,high_risk
TCGA-98-A53A-01,high_risk
TCGA-98-A53B-01,high_risk
TCGA-98-A53D-01,high_risk
TCGA-98-A53I-01,high_risk
TCGA-98-A53J-01,high_risk
TCGA-J1-A4AH-01,high_risk
TCGA-L3-A4E7-01,high_risk
TCGA-L3-A524-01,high_risk
TCGA-LA-A7SW-01,high_risk
TCGA-MF-A522-01,high_risk
TCGA-NC-A5HD-01,high_risk
TCGA-NC-A5HE-01,high_risk
TCGA-NC-A5HF-01,high_risk
TCGA-NC-A5HG-01,high_risk
TCGA-NC-A5HI-01,high_risk
TCGA-NC-A5HJ-01,high_risk
TCGA-NC-A5HK-01,high_risk
TCGA-NC-A5HL-01,high_risk
TCGA-NC-A5HM-01,high_risk
TCGA-NC-A5HN-01,high_risk
TCGA-NC-A5HO-01,high_risk
TCGA-NC-A5HP-01,high_risk
TCGA-NC-A5HQ-01,high_risk
TCGA-NC-A5HR-01,high_risk
TCGA-NC-A5HT-01,high_risk
TCGA-NK-A5CR-01,high_risk
TCGA-NK-A5CX-01,high_risk
TCGA-NK-A5D1-01,high_risk
TCGA-NK-A7XE-01,high_risk
TCGA-O2-A52N-01,high_risk
TCGA-O2-A52Q-01,high_risk
TCGA-O2-A52S-01,high_risk
TCGA-O2-A52V-01,high_risk
TCGA-O2-A52W-01,high_risk
TCGA-O2-A5IB-01,high_risk
TCGA-18-3409-01,low_risk
TCGA-18-4721-01,low_risk
TCGA-21-1083-01,low_risk
TCGA-21-A5DI-01,low_risk
TCGA-22-1002-01,low_risk
TCGA-22-1005-01,low_risk
TCGA-22-1017-01,low_risk
TCGA-22-4596-01,low_risk
TCGA-22-4609-01,low_risk
TCGA-22-4613-01,low_risk
TCGA-22-5477-01,low_risk
TCGA-22-5480-01,low_risk
TCGA-22-5483-01,low_risk
TCGA-22-5485-01,low_risk
TCGA-22-5489-01,low_risk
TCGA-22-5491-01,low_risk
TCGA-33-4582-01,low_risk
TCGA-33-4583-01,low_risk
TCGA-33-6738-01,low_risk
TCGA-33-A5GW-01,low_risk
TCGA-33-AAS8-01,low_risk
TCGA-33-AASD-01,low_risk
TCGA-33-AASL-01,low_risk
TCGA-34-2600-01,low_risk
TCGA-34-5231-01,low_risk
TCGA-34-5232-01,low_risk
TCGA-34-5234-01,low_risk
TCGA-34-5927-01,low_risk
TCGA-37-4129-01,low_risk
TCGA-37-4130-01,low_risk
TCGA-37-4141-01,low_risk
TCGA-39-5011-01,low_risk
TCGA-39-5029-01,low_risk
TCGA-39-5031-01,low_risk
TCGA-39-5035-01,low_risk
TCGA-39-5037-01,low_risk
TCGA-43-2578-01,low_risk
TCGA-43-5668-01,low_risk
TCGA-43-7656-01,low_risk
TCGA-43-7657-01,low_risk
TCGA-43-7658-01,low_risk
TCGA-43-8116-01,low_risk
TCGA-43-8118-01,low_risk
TCGA-43-A56U-01,low_risk
TCGA-46-3765-01,low_risk
TCGA-46-3766-01,low_risk
TCGA-46-3767-01,low_risk
TCGA-51-6867-01,low_risk
TCGA-52-7622-01,low_risk
TCGA-56-5897-01,low_risk
TCGA-56-5898-01,low_risk
TCGA-56-8304-01,low_risk
TCGA-56-8309-01,low_risk
TCGA-56-8626-01,low_risk
TCGA-56-8628-01,low_risk
TCGA-56-A4ZJ-01,low_risk
TCGA-56-A5DR-01,low_risk
TCGA-60-2706-01,low_risk
TCGA-60-2710-01,low_risk
TCGA-60-2715-01,low_risk
TCGA-60-2719-01,low_risk
TCGA-63-7020-01,low_risk
TCGA-63-7021-01,low_risk
TCGA-63-7022-01,low_risk
TCGA-63-7023-01,low_risk
TCGA-63-A5MH-01,low_risk
TCGA-63-A5MY-01,low_risk
TCGA-66-2757-01,low_risk
TCGA-66-2786-01,low_risk
TCGA-66-2787-01,low_risk
TCGA-66-2789-01,low_risk
TCGA-68-7755-01,low_risk
TCGA-68-8250-01,low_risk
TCGA-77-6843-01,low_risk
TCGA-77-8133-01,low_risk
TCGA-77-8146-01,low_risk
TCGA-77-8154-01,low_risk
TCGA-85-6560-01,low_risk
TCGA-85-7696-01,low_risk
TCGA-85-7698-01,low_risk
TCGA-85-7710-01,low_risk
TCGA-85-8048-01,low_risk
TCGA-85-8071-01,low_risk
TCGA-85-8072-01,low_risk
TCGA-85-8276-01,low_risk
TCGA-85-8287-01,low_risk
TCGA-85-8288-01,low_risk
TCGA-85-8350-01,low_risk
TCGA-85-8355-01,low_risk
TCGA-85-8479-01,low_risk
TCGA-85-8582-01,low_risk
TCGA-85-A4CL-01,low_risk
TCGA-85-A512-01,low_risk
TCGA-85-A513-01,low_risk
TCGA-85-A5B5-01,low_risk
TCGA-90-7766-01,low_risk
TCGA-94-7943-01,low_risk
TCGA-94-A4VJ-01,low_risk
TCGA-96-7545-01,low_risk
TCGA-96-8169-01,low_risk
TCGA-96-8170-01,low_risk
TCGA-98-8021-01,low_risk
TCGA-98-8022-01,low_risk
TCGA-98-A53C-01,low_risk
TCGA-98-A53H-01,low_risk
TCGA-LA-A446-01,low_risk
TCGA-NC-A5HH-01,low_risk
TCGA-NK-A5CT-01,low_risk
TCGA-XC-AA0X-01,low_risk
